module gitlab.com/sangha/sangha

go 1.12

require (
	cloud.google.com/go v0.43.0 // indirect
	github.com/Rhymond/go-money v0.4.0
	github.com/badoux/checkmail v0.0.0-20181210160741-9661bd69e9ad
	github.com/brianvoe/gofakeit v3.18.0+incompatible
	github.com/coreos/bbolt v1.3.3 // indirect
	github.com/coreos/etcd v3.3.13+incompatible // indirect
	github.com/coreos/go-semver v0.3.0 // indirect
	github.com/coreos/go-systemd v0.0.0-20190719114852-fd7a80b32e1f // indirect
	github.com/emicklei/go-restful v2.9.6+incompatible
	github.com/emicklei/go-restful-swagger12 v0.0.0-20170926063155-7524189396c6
	github.com/go-kit/kit v0.9.0 // indirect
	github.com/golang/groupcache v0.0.0-20190702054246-869f871628b6 // indirect
	github.com/google/pprof v0.0.0-20190723021845-34ac40c74b70 // indirect
	github.com/gosimple/slug v1.6.0
	github.com/grpc-ecosystem/grpc-gateway v1.9.5 // indirect
	github.com/hashicorp/golang-lru v0.5.3 // indirect
	github.com/json-iterator/go v1.1.7 // indirect
	github.com/kisielk/errcheck v1.2.0 // indirect
	github.com/konsorten/go-windows-terminal-sequences v1.0.2 // indirect
	github.com/kr/pty v1.1.8 // indirect
	github.com/lib/pq v1.2.0
	github.com/magiconair/properties v1.8.1 // indirect
	github.com/muesli/cache2go v0.0.0-20190609140403-5eb79359852d
	github.com/muesli/smolder v0.0.0-20190730123621-c593c1532763
	github.com/muesli/toktok v0.0.0-20181030220647-94235782aeac
	github.com/mwitkow/go-conntrack v0.0.0-20190716064945-2f068394615f // indirect
	github.com/pelletier/go-toml v1.4.0 // indirect
	github.com/pkg/errors v0.8.1 // indirect
	github.com/prometheus/common v0.6.0 // indirect
	github.com/prometheus/procfs v0.0.3 // indirect
	github.com/rainycape/unidecode v0.0.0-20150907023854-cb7f23ec59be // indirect
	github.com/rogpeppe/fastuuid v1.2.0 // indirect
	github.com/russross/blackfriday v2.0.0+incompatible // indirect
	github.com/satori/go.uuid v1.2.0
	github.com/sirupsen/logrus v1.4.2
	github.com/spf13/afero v1.2.2 // indirect
	github.com/spf13/cobra v0.0.5
	github.com/spf13/jwalterweatherman v1.1.0 // indirect
	github.com/spf13/viper v1.4.0 // indirect
	github.com/streadway/amqp v0.0.0-20190404075320-75d898a42a94 // indirect
	github.com/stretchr/objx v0.2.0 // indirect
	github.com/ugorji/go v1.1.7 // indirect
	github.com/xrash/smetrics v0.0.0-20170218160415-a3153f7040e9 // indirect
	gitlab.com/sangha/mq v0.0.0-20181128100227-b69bcf6541df
	go.etcd.io/bbolt v1.3.3 // indirect
	golang.org/x/crypto v0.0.0-20190701094942-4def268fd1a4
	golang.org/x/exp v0.0.0-20190718202018-cfdd5522f6f6 // indirect
	golang.org/x/image v0.0.0-20190729225735-1bd0cf576493 // indirect
	golang.org/x/mobile v0.0.0-20190719004257-d2bd2a29d028 // indirect
	golang.org/x/net v0.0.0-20190724013045-ca1201d0de80 // indirect
	golang.org/x/sys v0.0.0-20190726091711-fc99dfbffb4e // indirect
	golang.org/x/tools v0.0.0-20190729092621-ff9f1409240a // indirect
	google.golang.org/grpc v1.22.1 // indirect
	honnef.co/go/tools v0.0.1-2019.2.2 // indirect
)
